C:\Users\HP\OneDrive\Documentos\GitClon\prueba\tareaproject\src\main\java\controlador\PersonaControlador.java
C:\Users\HP\OneDrive\Documentos\GitClon\prueba\tareaproject\src\main\java\com\mycompany\tareaproject\Main.java
C:\Users\HP\OneDrive\Documentos\GitClon\prueba\tareaproject\src\main\java\misc\Validator.java
C:\Users\HP\OneDrive\Documentos\GitClon\prueba\tareaproject\src\main\java\misc\DateOperator.java
C:\Users\HP\OneDrive\Documentos\GitClon\prueba\tareaproject\src\main\java\vista\TareaFrame.java
C:\Users\HP\OneDrive\Documentos\GitClon\prueba\tareaproject\src\main\java\modelo\Persona.java
